wychaidfhnjmnxk.vcd
$version Generated by VerilatedVcd $end
$date Fri Jul 22 19:30:15 2022
 $end
$timescale   1ns $end

 $scope module TOP $end
  $var wire  1 * Cin $end
  $var wire  1 . Cout $end
  $var wire  8 + a [7:0] $end
  $var wire  8 , b [7:0] $end
  $var wire  8 - s [7:0] $end
  $scope module add_8 $end
   $var wire  1 * Cin $end
   $var wire  1 . Cout $end
   $var wire  8 + a [7:0] $end
   $var wire  8 , b [7:0] $end
   $var wire  1 & d $end
   $var wire  1 ' e $end
   $var wire  1 ( f $end
   $var wire  1 ) g $end
   $var wire  1 / h $end
   $var wire  8 - s [7:0] $end
   $var wire  1 # x $end
   $var wire  1 $ y $end
   $var wire  1 % z $end
   $scope module eight $end
    $var wire  1 ) Cin $end
    $var wire  1 / Cout $end
    $var wire  1 E a $end
    $var wire  1 F b $end
    $var wire  1 G s $end
   $upscope $end
   $scope module fifth $end
    $var wire  1 & Cin $end
    $var wire  1 ' Cout $end
    $var wire  1 < a $end
    $var wire  1 = b $end
    $var wire  1 > s $end
   $upscope $end
   $scope module first $end
    $var wire  1 * Cin $end
    $var wire  1 # Cout $end
    $var wire  1 0 a $end
    $var wire  1 1 b $end
    $var wire  1 2 s $end
   $upscope $end
   $scope module fourth $end
    $var wire  1 % Cin $end
    $var wire  1 & Cout $end
    $var wire  1 9 a $end
    $var wire  1 : b $end
    $var wire  1 ; s $end
   $upscope $end
   $scope module second $end
    $var wire  1 # Cin $end
    $var wire  1 $ Cout $end
    $var wire  1 3 a $end
    $var wire  1 4 b $end
    $var wire  1 5 s $end
   $upscope $end
   $scope module seventh $end
    $var wire  1 ( Cin $end
    $var wire  1 ) Cout $end
    $var wire  1 B a $end
    $var wire  1 C b $end
    $var wire  1 D s $end
   $upscope $end
   $scope module sixth $end
    $var wire  1 ' Cin $end
    $var wire  1 ( Cout $end
    $var wire  1 ? a $end
    $var wire  1 @ b $end
    $var wire  1 A s $end
   $upscope $end
   $scope module third $end
    $var wire  1 $ Cin $end
    $var wire  1 % Cout $end
    $var wire  1 6 a $end
    $var wire  1 7 b $end
    $var wire  1 8 s $end
   $upscope $end
  $upscope $end
 $upscope $end
$enddefinitions $end


#0
1#
0$
0%
0&
0'
0(
0)
0*
b00000001 +
b00000001 ,
b00000010 -
0.
0/
10
11
02
03
04
15
06
07
08
09
0:
0;
0<
0=
0>
0?
0@
0A
0B
0C
0D
0E
0F
0G
#1
0#
1&
b00001000 +
b00001010 ,
b00010010 -
00
01
14
19
1:
1>
#2
0&
1(
b00101000 +
b00110010 ,
b01011010 -
0:
1;
1=
1?
1@
1D
#3
1%
1&
1)
b01100100 +
b01101111 ,
b11010011 -
11
12
16
17
09
1:
0;
0=
1B
1C
1G
#4
1$
0%
0&
0(
0)
b10000010 +
b10000010 ,
b00000100 -
1.
1/
01
02
13
05
06
07
18
0:
0>
0?
0@
0B
0C
0D
1E
1F
0G
#5
0$
1(
1)
b01100100 +
b01111001 ,
b11011101 -
0.
0/
11
12
03
04
16
1:
1;
1=
1>
1?
1@
1B
1C
1D
0E
0F
1G
#6
1#
0(
0)
b00001001 +
b00010101 ,
b00011110 -
10
02
15
06
17
19
0:
0?
0@
0B
0C
0D
0G
#7
1$
1%
1&
1'
b00011111 +
b00011111 ,
b00111110 -
13
14
16
1:
1<
1A
#8
0$
0%
0&
0'
1*
b00000001 +
b00000001 ,
b00000011 -
12
03
04
06
07
08
09
0:
0;
0<
0=
0>
0A
#9
0#
1&
b00001000 +
b00001010 ,
b00010011 -
00
01
14
19
1:
1>
#10
0&
1(
b00101000 +
b00110010 ,
b01011011 -
0:
1;
1=
1?
1@
1D
#11
1#
1$
1%
1&
1)
b01100100 +
b01101111 ,
b11010100 -
11
02
05
16
17
18
09
1:
0;
0=
1B
1C
1G
#12
0#
0%
0&
0(
0)
b10000010 +
b10000010 ,
b00000101 -
1.
1/
01
12
13
06
07
0:
0>
0?
0@
0B
0C
0D
1E
1F
0G
#13
1#
0$
1(
1)
b01100100 +
b01111001 ,
b11011110 -
0.
0/
11
02
03
04
15
16
1:
1;
1=
1>
1?
1@
1B
1C
1D
0E
0F
1G
#14
0(
0)
b00001001 +
b00010101 ,
b00011111 -
10
12
06
17
19
0:
0?
0@
0B
0C
0D
0G
#15
1$
1%
1&
1'
b00011111 +
b00011111 ,
b00111111 -
13
14
16
1:
1<
1A
